{
  "project_info": {
    "project_number": "661738840862",
    "firebase_url": "https://iautomech-d951a.firebaseio.com",
    "project_id": "iautomech-d951a",
    "storage_bucket": "iautomech-d951a.appspot.com"
  },
  "client": [
    {
      "client_info": {
        "mobilesdk_app_id": "1:661738840862:android:77fd6206a8b036d1",
        "android_client_info": {
          "package_name": "codesworth.net.iautomech"
        }
      },
      "oauth_client": [
        {
          "client_id": "661738840862-ee3j4agpbmjs3jaivpc3cb6s6hp1pceh.apps.googleusercontent.com",
          "client_type": 3
        }
      ],
      "api_key": [
        {
          "current_key": "AIzaSyBxm5Ie3WXRdScRn5ocSZha644-wYyhOqg"
        }
      ],
      "services": {
        "analytics_service": {
          "status": 1
        },
        "appinvite_service": {
          "status": 1,
          "other_platform_oauth_client": []
        },
        "ads_service": {
          "status": 2
        }
      }
    }
  ],
  "configuration_version": "1"
}